<svg width="152" height="151" viewBox="0 0 152 151" fill="none" xmlns="http://www.w3.org/2000/svg">
<path d="M66.7266 65.582C69.2109 65.582 71.1855 66.2793 72.6504 67.6738C74.127 69.0684 74.8652 70.9785 74.8652 73.4043C74.8652 76.2754 73.9805 78.4844 72.2109 80.0312C70.4414 81.5781 67.9102 82.3516 64.6172 82.3516C61.7578 82.3516 59.4492 81.8887 57.6914 80.9629V76.2695C58.6172 76.7617 59.6953 77.166 60.9258 77.4824C62.1562 77.7871 63.3223 77.9395 64.4238 77.9395C67.7402 77.9395 69.3984 76.5801 69.3984 73.8613C69.3984 71.2715 67.6816 69.9766 64.248 69.9766C63.627 69.9766 62.9414 70.041 62.1914 70.1699C61.4414 70.2871 60.832 70.416 60.3633 70.5566L58.2012 69.3965L59.168 56.3008H73.1074V60.9062H63.9316L63.457 65.9512L64.0723 65.8281C64.7871 65.6641 65.6719 65.582 66.7266 65.582ZM80.4902 82L90.1406 60.9062H77.4668V56.3359H95.9062V59.7461L86.1855 82H80.4902Z" fill="white"/>
<path d="M52.6055 99H46.9746V98.1621L49.2305 95.8945C49.918 95.1992 50.3711 94.7031 50.5898 94.4062C50.8086 94.1094 50.9727 93.8203 51.082 93.5391C51.1914 93.2578 51.2461 92.9551 51.2461 92.6309C51.2461 92.1738 51.1074 91.8125 50.8301 91.5469C50.5527 91.2773 50.168 91.1426 49.6758 91.1426C49.3203 91.1426 48.9824 91.2012 48.6621 91.3184C48.3457 91.4355 47.9922 91.6484 47.6016 91.957L47.0859 91.2949C47.875 90.6387 48.7344 90.3105 49.6641 90.3105C50.4688 90.3105 51.0996 90.5176 51.5566 90.9316C52.0137 91.3418 52.2422 91.8945 52.2422 92.5898C52.2422 93.1328 52.0898 93.6699 51.7852 94.2012C51.4805 94.7324 50.9102 95.4043 50.0742 96.2168L48.1992 98.0508V98.0977H52.6055V99ZM59.877 97.0312H58.6055V99H57.6738V97.0312H53.5078V96.1816L57.5742 90.3867H58.6055V96.1465H59.877V97.0312ZM57.6738 96.1465V93.2988C57.6738 92.7402 57.6934 92.1094 57.7324 91.4062H57.6855C57.498 91.7812 57.3223 92.0918 57.1582 92.3379L54.4805 96.1465H57.6738ZM67.8047 99H66.8086V94.9688H62.2969V99H61.3008V90.4336H62.2969V94.0781H66.8086V90.4336H67.8047V99ZM80.7539 99H79.7695L78.041 93.2637C77.959 93.0098 77.8672 92.6895 77.7656 92.3027C77.6641 91.916 77.6113 91.6836 77.6074 91.6055C77.5215 92.1211 77.3848 92.6855 77.1973 93.2988L75.5215 99H74.5371L72.2578 90.4336H73.3125L74.666 95.7246C74.8535 96.4668 74.9902 97.1387 75.0762 97.7402C75.1816 97.0254 75.3379 96.3262 75.5449 95.6426L77.0801 90.4336H78.1348L79.7461 95.6895C79.9336 96.2949 80.0918 96.9785 80.2207 97.7402C80.2949 97.1855 80.4355 96.5098 80.6426 95.7129L81.9902 90.4336H83.0449L80.7539 99ZM85.2129 99H84.2402V92.5781H85.2129V99ZM84.1582 90.8379C84.1582 90.6152 84.2129 90.4531 84.3223 90.3516C84.4316 90.2461 84.5684 90.1934 84.7324 90.1934C84.8887 90.1934 85.0234 90.2461 85.1367 90.3516C85.25 90.457 85.3066 90.6191 85.3066 90.8379C85.3066 91.0566 85.25 91.2207 85.1367 91.3301C85.0234 91.4355 84.8887 91.4883 84.7324 91.4883C84.5684 91.4883 84.4316 91.4355 84.3223 91.3301C84.2129 91.2207 84.1582 91.0566 84.1582 90.8379ZM91.6699 99V94.8457C91.6699 94.3223 91.5508 93.9316 91.3125 93.6738C91.0742 93.416 90.7012 93.2871 90.1934 93.2871C89.5215 93.2871 89.0293 93.4688 88.7168 93.832C88.4043 94.1953 88.248 94.7949 88.248 95.6309V99H87.2754V92.5781H88.0664L88.2246 93.457H88.2715C88.4707 93.1406 88.75 92.8965 89.1094 92.7246C89.4688 92.5488 89.8691 92.4609 90.3105 92.4609C91.084 92.4609 91.666 92.6484 92.0566 93.0234C92.4473 93.3945 92.6426 93.9902 92.6426 94.8105V99H91.6699ZM98.1504 92.9883C98.1504 93.6523 98.2227 94.1504 98.3672 94.4824C98.5117 94.8145 98.7461 94.9805 99.0703 94.9805C99.7109 94.9805 100.031 94.3164 100.031 92.9883C100.031 91.668 99.7109 91.0078 99.0703 91.0078C98.7461 91.0078 98.5117 91.1719 98.3672 91.5C98.2227 91.8281 98.1504 92.3242 98.1504 92.9883ZM100.834 92.9883C100.834 93.8789 100.684 94.5527 100.383 95.0098C100.086 95.4629 99.6484 95.6895 99.0703 95.6895C98.5234 95.6895 98.0977 95.457 97.793 94.9922C97.4922 94.5273 97.3418 93.8594 97.3418 92.9883C97.3418 92.1016 97.4863 91.4336 97.7754 90.9844C98.0684 90.5352 98.5 90.3105 99.0703 90.3105C99.6367 90.3105 100.072 90.543 100.377 91.0078C100.682 91.4727 100.834 92.1328 100.834 92.9883ZM103.307 96.4219C103.307 97.0898 103.379 97.5898 103.523 97.9219C103.668 98.25 103.904 98.4141 104.232 98.4141C104.561 98.4141 104.803 98.252 104.959 97.9277C105.115 97.5996 105.193 97.0977 105.193 96.4219C105.193 95.7539 105.115 95.2598 104.959 94.9395C104.803 94.6152 104.561 94.4531 104.232 94.4531C103.904 94.4531 103.668 94.6152 103.523 94.9395C103.379 95.2598 103.307 95.7539 103.307 96.4219ZM105.996 96.4219C105.996 97.3086 105.846 97.9805 105.545 98.4375C105.248 98.8906 104.811 99.1172 104.232 99.1172C103.678 99.1172 103.25 98.8848 102.949 98.4199C102.652 97.9551 102.504 97.2891 102.504 96.4219C102.504 95.5352 102.648 94.8672 102.938 94.418C103.23 93.9688 103.662 93.7441 104.232 93.7441C104.787 93.7441 105.219 93.9746 105.527 94.4355C105.84 94.8926 105.996 95.5547 105.996 96.4219ZM104.484 90.4336L99.7324 99H98.8711L103.623 90.4336H104.484Z" fill="white"/>
<path d="M75.9956 7.71971C84.915 7.71971 93.747 9.47651 101.987 12.8898C110.228 16.3031 117.715 21.3061 124.022 27.613C130.329 33.92 135.332 41.4074 138.745 49.6479C142.159 57.8883 143.916 66.7203 143.916 75.6397C143.916 84.5591 142.159 93.3911 138.745 101.632C135.332 109.872 130.329 117.359 124.022 123.666C117.715 129.973 110.228 134.976 101.987 138.39C93.747 141.803 84.915 143.56 75.9956 143.56C67.0762 143.56 58.2441 141.803 50.0037 138.39C41.7633 134.976 34.2758 129.973 27.9689 123.666C21.6619 117.359 16.659 109.872 13.2457 101.632C9.83237 93.3911 8.07556 84.5591 8.07556 75.6397C8.07557 66.7203 9.83237 57.8883 13.2457 49.6478C16.659 41.4074 21.6619 33.92 27.9689 27.613C34.2758 21.3061 41.7633 16.3031 50.0037 12.8898C58.2442 9.47651 67.0762 7.71971 75.9956 7.71971L75.9956 7.71971Z" stroke="#1D2B36" stroke-opacity="0.3" stroke-width="6.25798"/>
<path d="M140.574 99.5713C135.913 112.343 127.568 123.445 116.596 131.474C105.624 139.504 92.5181 144.099 78.9346 144.679C65.3511 145.26 51.9005 141.799 40.2838 134.735C28.6671 127.671 19.406 117.321 13.6716 104.994" stroke="#DE0035" stroke-width="12.516" stroke-linecap="round"/>
<path d="M145.069 75.7505C145.069 37.6047 114.146 6.6814 75.9997 6.6814C37.8539 6.6814 6.93065 37.6047 6.93065 75.7505C6.93065 76.6499 6.94784 77.5454 6.98192 78.4365" stroke="#48C364" stroke-width="12.1672" stroke-linecap="round"/>
</svg>
