<svg width="150" height="151" viewBox="0 0 150 151" fill="none" xmlns="http://www.w3.org/2000/svg">
<path d="M45.84 0H41.6699V4.17012H45.84V0Z" fill="white"/>
<path d="M66.676 0H62.5059V4.17012H66.676V0Z" fill="white"/>
<path d="M95.8342 0H91.6641V4.17012H95.8342V0Z" fill="white"/>
<path d="M58.3344 8.34025V4.17012H54.1643V0H49.9941V4.17012V8.34025V12.4948H54.1643V8.34025H58.3344Z" fill="white"/>
<path d="M100.006 4.17017H95.8359V8.34029H100.006V4.17017Z" fill="white"/>
<path d="M108.33 12.4949V16.665H112.5V12.4949V8.34029V4.17017H108.33V8.34029V12.4949Z" fill="white"/>
<path d="M41.6701 12.4949V8.34033H37.5V12.4949V16.665H41.6701V12.4949Z" fill="white"/>
<path d="M108.346 0H104.176V4.17012H108.346V0Z" fill="white"/>
<path d="M100.006 16.665H104.176V12.4949V8.34033H100.006V12.4949V16.665Z" fill="white"/>
<path d="M50.01 16.665H45.8398V20.8352H50.01V16.665Z" fill="white"/>
<path d="M66.676 16.665H62.5059V20.8352H66.676V16.665Z" fill="white"/>
<path d="M45.84 20.835H41.6699V25.0051H45.84V20.835Z" fill="white"/>
<path d="M83.34 20.835H79.1699V25.0051H83.34V20.835Z" fill="white"/>
<path d="M41.6701 25.0051H37.5V29.1753H41.6701V25.0051Z" fill="white"/>
<path d="M87.51 25.0051H83.3398V29.1753H87.51V25.0051Z" fill="white"/>
<path d="M54.1643 29.1597V25.0051V20.835H49.9941V25.0051V29.1597V33.3298H54.1643V29.1597Z" fill="white"/>
<path d="M62.5061 29.1597V25.0051V20.835H58.3359V25.0051V29.1597V33.3298H62.5061V29.1597Z" fill="white"/>
<path d="M83.34 29.1597H79.1699V33.3298V37.4999H83.34V33.3298V29.1597Z" fill="white"/>
<path d="M33.3459 37.5H29.1758V41.6701H33.3459V37.5Z" fill="white"/>
<path d="M83.3398 41.6701V45.8402H87.51V41.6701V37.5H83.3398V41.6701Z" fill="white"/>
<path d="M116.671 37.5H112.5V33.3298H108.33V37.5H104.176V41.6701H108.33V45.8402H112.5H116.671V41.6701V37.5Z" fill="white"/>
<path d="M4.17012 41.6702H0V45.8403H4.17012V41.6702Z" fill="white"/>
<path d="M20.8342 41.6701V37.5H16.6641V41.6701V45.8402H20.8342V41.6701Z" fill="white"/>
<path d="M104.176 41.6702H100.006V45.8403H104.176V41.6702Z" fill="white"/>
<path d="M125.01 41.6702H120.84V45.8403H125.01V41.6702Z" fill="white"/>
<path d="M16.6647 49.9948V45.8402H12.4946V41.6701V37.5H8.34005H4.16992V41.6701H8.34005V45.8402V49.9948H12.4946H16.6647Z" fill="white"/>
<path d="M95.8342 45.8403H91.6641V50.0105H95.8342V45.8403Z" fill="white"/>
<path d="M137.504 49.9948V45.8402V41.6701V37.5H133.334V41.6701H129.164V45.8402V49.9948V54.1649H133.334V49.9948H137.504Z" fill="white"/>
<path d="M8.34005 49.9949H4.16992V54.165H8.34005V49.9949Z" fill="white"/>
<path d="M112.5 20.835H108.33V25.0051H112.5V20.835Z" fill="white"/>
<path d="M108.346 25.0051H104.176V29.1753H108.346V25.0051Z" fill="white"/>
<path d="M20.8342 49.9949H16.6641V54.165H20.8342V49.9949Z" fill="white"/>
<path d="M49.9944 49.9949V45.8403H45.8398V49.9949V54.165V58.3351H49.9944V54.165H54.1645V49.9949H49.9944Z" fill="white"/>
<path d="M120.84 54.165V49.9949V45.8403H116.67V49.9949H112.5V54.165H116.67H120.84Z" fill="white"/>
<path d="M12.51 54.165H8.33984V58.3352H12.51V54.165Z" fill="white"/>
<path d="M25.0041 58.3351V62.5053H29.1742H33.3288H37.4989H41.669V58.3351V54.165H37.4989V58.3351H33.3288H29.1742V54.165H33.3288V49.9949V45.8403H29.1742H25.0041V49.9949V54.165H20.834V58.3351H25.0041Z" fill="white"/>
<path d="M108.331 58.3352H112.501V54.165H108.331H104.176V58.3352V62.5053H100.006V66.6754V70.83H104.176V66.6754H108.331V62.5053V58.3352Z" fill="white"/>
<path d="M125.01 58.335H120.84H116.67V62.5051H120.84H125.01V66.6752H129.165H133.335V62.5051V58.335H129.165H125.01Z" fill="white"/>
<path d="M4.17012 62.5051V58.335H0V62.5051V66.6752H4.17012V62.5051Z" fill="white"/>
<path d="M50.01 62.5051H45.8398V66.6753H50.01V62.5051Z" fill="white"/>
<path d="M75 62.5052V66.6754H79.1701H83.3403H87.5104V62.5052V58.3351H91.6649H95.8351H100.005V54.165V49.9949H95.8351V54.165H91.6649H87.5104V49.9949H83.3403V54.165V58.3351H79.1701V62.5052H75Z" fill="white"/>
<path d="M112.5 66.6753H108.33V70.8298V74.9999H112.5V70.8298H116.67V66.6753V62.5051H112.5V66.6753Z" fill="white"/>
<path d="M45.8402 70.8299V66.6753H41.6701H37.5V70.8299H41.6701H45.8402Z" fill="white"/>
<path d="M54.1649 70.8299V75H58.3351V79.1702V83.3403V87.5104H62.5052V91.6805H66.6753H70.8454H75.0156V87.5104V83.3403H70.8454V87.5104H66.6753V83.3403H62.5052V79.1702V75H66.6753H70.8454V79.1702H75.0156V83.3403H79.1857H83.3558V87.5104H87.5259V83.3403H91.6961V79.1702H87.5259V75H83.3558V79.1702H79.1857V75H75V70.8299H70.8299H66.6597V66.6598V62.4897V58.3195H70.8299V62.4897H75V58.3195H79.1701V54.1494V49.9793H75V54.1494H70.8299V49.9793H75V45.8092H79.1701V41.639H75V37.5H70.8299V41.6702H66.6597V37.5H70.8299V33.3299H75V29.1598V24.9897V20.8195V16.6494H79.1701H83.3402H87.5104V20.8195H91.6805V24.9897H95.8506V29.1598H91.6805V33.3299H87.5104V37.5H91.6805V41.6702H95.8506V37.5H100.021V33.3299V29.1598V24.9897V20.8195H95.8506V16.6494V12.4949V8.34029H91.6805V4.17017H87.5104H83.3402H79.1701V8.34029H83.3402V12.5104H79.1701H75H70.8299V8.34029V4.17017H66.6597V8.34029H62.4896H58.3195V12.5104H54.1494V16.6805H58.3195H62.4896V12.4949H66.6597V16.665H70.8299V20.8351V25.0052H66.6597V29.1754V33.3455H62.4896V37.5156H58.3195V33.3455H54.1494V37.5156H49.9792V33.3455H45.8091V37.5156H41.639H37.5V41.6857H41.6701H45.8402H50.0104H54.1805H58.3506V45.8558V50.026V54.1961H54.1805V58.3662V62.5363V66.7065H50.0104V70.8766H54.1649V70.8299ZM62.5052 49.9949V45.8247H66.6753V49.9949V54.165H62.5052V49.9949ZM58.3351 58.3351H62.5052V62.5052H58.3351V58.3351ZM62.5052 66.6754V70.8455H58.3351V66.6754H62.5052Z" fill="white"/>
<path d="M91.6643 70.8299H95.8345V66.6753H91.6643H87.5098V70.8299H91.6643Z" fill="white"/>
<path d="M4.17012 70.8298H0V75H4.17012V70.8298Z" fill="white"/>
<path d="M45.84 75H41.6699V79.1701H45.84V83.3402H49.9946H54.1647V79.1701H49.9946V75V70.8298H45.84V75Z" fill="white"/>
<path d="M29.1742 79.1701H33.3288H37.4989V75V70.8299H33.3288V66.6753H29.1742H25.0041H20.834V70.8299H25.0041V75H29.1742V79.1701Z" fill="white"/>
<path d="M95.8342 75H91.6641V79.1701H95.8342V75Z" fill="white"/>
<path d="M112.501 75V79.1701H108.33V83.3402H112.501H116.671V87.5103H120.841V91.6805V95.8506V100.021V104.191H116.671V108.361H112.501V104.191H116.671V100.021H112.501H108.33H104.16V104.191H108.33V108.361H104.16V112.531H99.9902V116.701V120.871H104.16V116.701H108.33V120.871H104.16V125.041H108.33V129.212H104.16V133.382H108.33V137.552H112.501V133.382H116.671V129.212H120.841V133.382H116.671V137.552H120.841V141.722H125.011V145.892H120.841V141.722H116.671V145.892H112.501V150.062H116.671H120.841H125.011H129.181H133.351H137.521V145.892H141.691V141.722H137.521H133.351V145.892H129.181V141.722H133.351V137.552H129.181H125.011V133.382V129.212H129.181V120.871H133.351H137.521V116.701H141.691V112.5H137.521H133.351V116.67H129.181V112.5H133.351V108.33H129.181H125.011V104.16V99.9896V95.8195V91.6493H129.181V95.8195V99.9896H133.351V95.8195V91.6493H137.521V87.4792H133.351H129.181H125.011V83.3091H120.841V79.139H125.011V83.3091H129.181V79.139H133.351V75H129.181V70.8298H125.011H120.841H116.671V75H112.501ZM125.011 125.01H112.501V112.5H124.995V125.01H125.011Z" fill="white"/>
<path d="M104.176 79.1701H108.331V75H104.176H100.006V79.1701V83.3402H104.176V79.1701Z" fill="white"/>
<path d="M137.506 79.1702H133.336V83.3403H137.506V79.1702Z" fill="white"/>
<path d="M29.176 83.3403H25.0059V87.5105H29.176V83.3403Z" fill="white"/>
<path d="M100.006 83.3403H95.8359V87.5105H100.006V83.3403Z" fill="white"/>
<path d="M83.34 87.4949H79.1699V91.665H83.34V87.4949Z" fill="white"/>
<path d="M104.176 91.665H108.331V87.4949H104.176H100.006V91.665V95.8351H104.176V91.665Z" fill="white"/>
<path d="M112.5 91.665H108.33V95.8352H112.5V91.665Z" fill="white"/>
<path d="M62.5061 95.835H58.3359V100.005H62.5061V95.835Z" fill="white"/>
<path d="M70.8459 95.835H66.6758V100.005H70.8459V95.835Z" fill="white"/>
<path d="M79.1701 95.835H75V100.005H79.1701V95.835Z" fill="white"/>
<path d="M66.676 100.005H62.5059V104.175H66.676V100.005Z" fill="white"/>
<path d="M75.0002 100.005H70.8301V104.175H75.0002V100.005Z" fill="white"/>
<path d="M20.8351 104.175V100.005V95.835V91.6648V87.4947H16.6649H12.4948V83.3401V79.17H16.6649V83.3401H20.8351H25.0052V79.17V74.9999H20.8351H16.6649V70.8298V66.6752V62.5051V58.335H12.4948V62.5051V66.6752V70.8298V74.9999H8.34025H4.17012V79.17H8.34025V83.3401H4.17012V79.17H0V83.3401V87.4947H4.17012V91.6648H0V95.835V100.005V104.175V108.33V112.5H4.17012H8.34025H12.4948V108.33H8.34025V104.175H4.17012V100.005V95.835H8.34025H12.4948V91.6648H16.6649V95.835V100.005V104.175H12.4948V108.33H16.6649H20.8351V112.5H25.0052V108.33H29.1753V104.175H25.0052H20.8351Z" fill="white"/>
<path d="M62.5059 108.33V104.175H58.3357V100.005H54.1656V104.175H49.9955V100.005H54.1656V95.8351V91.665V87.4949H49.9955H45.8409V91.665H49.9955V95.8351H45.8409H41.6708H37.5007H33.3305V91.665H37.5007H41.6708V87.4949H45.8409V83.3403H41.6708V79.1702H37.5007V83.3403V87.4949H33.3305H29.176V91.665V95.8351H25.0059V100.005H29.176V104.175H33.3305V100.005H37.5007V104.175H41.6708V100.005H45.8409V104.175V108.33H41.6708H37.5007V104.175H33.3305V108.33V112.5H37.5007H41.6708V116.67H37.5007V120.84H41.6708V125.01H45.8409V120.84V116.67V112.5H49.9955V108.33H54.1656V112.5H58.3357V108.33H62.5059Z" fill="white"/>
<path d="M87.51 108.33H91.6645V104.175H95.8347H100.005V100.005V95.835H95.8347V100.005H91.6645H87.51V95.835H83.3398V100.005V104.175H87.51V108.33Z" fill="white"/>
<path d="M104.176 104.175H100.006V108.345H104.176V104.175Z" fill="white"/>
<path d="M83.34 108.33V104.175H79.1699V108.33V112.5H83.34V108.33Z" fill="white"/>
<path d="M100.006 108.33H95.8359V112.5H100.006V108.33Z" fill="white"/>
<path d="M91.6645 116.67H95.8347V112.5H91.6645H87.51H83.3398V116.67H87.51H91.6645Z" fill="white"/>
<path d="M54.1643 116.67H49.9941V120.84H54.1643H58.3344V116.67H54.1643Z" fill="white"/>
<path d="M120.84 116.67H116.67V120.84H120.84V116.67Z" fill="white"/>
<path d="M62.5061 120.84H58.3359V125.01H62.5061V120.84Z" fill="white"/>
<path d="M137.506 125.01H133.336V129.18H137.506V125.01Z" fill="white"/>
<path d="M41.6701 129.165H37.5V133.335H41.6701V129.165Z" fill="white"/>
<path d="M58.3342 129.165V125.01H54.1641V129.165V133.335V137.505H58.3342V133.335V129.165Z" fill="white"/>
<path d="M100.006 129.165H95.8359V133.335H100.006V129.165Z" fill="white"/>
<path d="M50.01 133.335H45.8398V137.505H50.01V133.335Z" fill="white"/>
<path d="M66.676 133.335H62.5059V137.505H66.676V133.335Z" fill="white"/>
<path d="M45.8402 137.505H41.6701H37.5V141.675V145.83H41.6701V141.675H45.8402V137.505Z" fill="white"/>
<path d="M62.5061 137.505H58.3359V141.675H62.5061V137.505Z" fill="white"/>
<path d="M87.5112 137.505H91.6813V133.335H87.5112H83.3411V137.505V141.675H79.1709V137.505H75.0008V133.335H79.1709H83.3411V129.165H87.5112H91.6813H95.8514V124.995H91.6813H87.5112H83.3411V120.825V116.655H79.1709V112.5H75.0008H70.8307V108.33H66.6606H62.4904V112.5H58.3203V116.67H62.4904H66.6606V120.84V125.01V129.18V133.351H70.8307V137.521H66.6606V141.691V145.861H70.8307V141.691H75.0008V145.861H79.1709H83.3411H87.5112V141.691V137.505ZM70.8307 125.01H75.0008V120.84H70.8307V116.67H75.0008V120.84H79.1709V125.01V129.18H75.0008H70.8307V125.01Z" fill="white"/>
<path d="M54.1643 141.675H49.9941V145.845H54.1643V141.675Z" fill="white"/>
<path d="M50.01 145.83H45.8398V150H50.01V145.83Z" fill="white"/>
<path d="M58.3342 145.83H54.1641V150H58.3342H62.5043H66.6744V145.83H62.5043H58.3342Z" fill="white"/>
<path d="M75.0002 145.83H70.8301V150H75.0002V145.83Z" fill="white"/>
<path d="M141.676 95.835H137.506V100.005V104.175H141.676V100.005V95.835Z" fill="white"/>
<path d="M141.676 83.3403H137.506V87.4949H141.676H145.831V91.665H150.001V87.4949V83.3403V79.1702H145.831V83.3403H141.676Z" fill="white"/>
<path d="M145.831 79.1701V75H141.676V70.8298H137.506V75V79.1701H141.676H145.831Z" fill="white"/>
<path d="M141.676 54.165H137.506H133.336V58.3352H137.506V62.5053V66.6754H141.676V62.5053H145.831V58.3352H150.001V54.165H145.831H141.676Z" fill="white"/>
<path d="M145.83 104.175H141.676V108.33H145.83V112.5V116.67H150V112.5V108.33V104.175V100.005H145.83V104.175Z" fill="white"/>
<path d="M104.176 133.335H100.006V137.505H104.176V133.335Z" fill="white"/>
<path d="M116.67 137.505H112.5V141.675H116.67V137.505Z" fill="white"/>
<path d="M108.329 141.675V137.505H104.175V141.675H100.005V137.505H95.8345V141.675H91.6643V145.83H87.5098V150H91.6643H95.8345V145.83H100.005V150H104.175V145.83H108.329H112.499V141.675H108.329Z" fill="white"/>
<path d="M141.676 129.165H137.506V133.335H141.676V129.165Z" fill="white"/>
<path d="M145.83 133.335H141.676V137.505H145.83V141.675V145.83H150V141.675V137.505V133.335V129.165H145.83V133.335Z" fill="white"/>
<path d="M33.3299 0H0V33.3299H33.3299V0ZM29.1753 29.1597H4.17012V4.17012H29.1753V29.1597Z" fill="white"/>
<path d="M25.0048 8.34033H8.33984V25.0053H25.0048V8.34033Z" fill="white"/>
<path d="M0 150.887H33.3299V117.542H0V150.887ZM4.17012 121.712H29.1753V146.717H4.17012V121.712Z" fill="white"/>
<path d="M25.0048 125.882H8.33984V142.547H25.0048V125.882Z" fill="white"/>
<path d="M116.67 0V33.3299H150V0H116.67ZM145.83 29.1597H120.84V4.17012H145.845V29.1597H145.83Z" fill="white"/>
<path d="M141.675 8.34033H125.01V25.0053H141.675V8.34033Z" fill="white"/>
</svg>
